Evaluation of placement, efficiency, and animal behavioral response of non-invasive hair traps for wild North American beavers (Castor canadensis)
…
# summarizing number of snares deployed each year
snare_database %>% group_by(year) %>% summarize(n=n())

# A tibble: 2 × 2
   year     n
  <dbl> <int>
1  2022    33
2  2023    31

snare_database %>% group_by(pond.id) %>% summarize(n=n())

# A tibble: 56 × 2
   pond.id     n
   <chr>   <int>
 1 pond_01     4
 2 pond_02     1
 3 pond_03     1
 4 pond_04     1
 5 pond_05     2
 6 pond_06     1
 7 pond_07     1
 8 pond_08     2
 9 pond_09     1
10 pond_10     1
# ℹ 46 more rows

snare_database %>% group_by(pond.id, year) %>% summarize(n=n())

# A tibble: 61 × 3
# Groups:   pond.id [56]
   pond.id  year     n
   <chr>   <dbl> <int>
 1 pond_01  2022     3
 2 pond_01  2023     1
 3 pond_02  2022     1
 4 pond_03  2022     1
 5 pond_04  2022     1
 6 pond_05  2022     1
 7 pond_05  2023     1
 8 pond_06  2022     1
 9 pond_07  2022     1
10 pond_08  2022     1
# ℹ 51 more rows
…
[1] 0.04833837

# percent of all videos recorded of beavers where beavers were influenced by snare
influence$n/beaver$n

[1] 0.001066288

Times other animals snagged snare

# finding overall number of other species that snagges snare
subset(videos, videos$main.species != "beaver" & videos$snag.snare == 1) %>% 
  group_by(main.species) %>% summarize(n=n()) %>% 
  mutate(percent.snag = n / sum(n))

# A tibble: 28 × 3
   main.species         n percent.snag
   <chr>            <int>        <dbl>
 1 americanmink         8      0.0174 
 2 blackbear           13      0.0283 
 3 bluejay              5      0.0109 
 4 bobcat               2      0.00436
 5 broadwingedhawk      1      0.00218
 6 canadajay            2      0.00436
 7 fisher               7      0.0153 
 8 flyingsquirrel       1      0.00218
 9 longtailedweasel     3      0.00654
10 moose                1      0.00218
# ℹ 18 more rows
…
# merging all possibilities
merged <- merge(videos, snare_check_new, by = "hair.snare.id", all=TRUE)

# filtering out ones that don't make sense
# creating column that tells us if the videos recorded are in range of when the hair snare was checked
merged$videos_within_range <- with(merged, 
                            date.time.video.recorded >= start.time.period.sample.and.videos &
                              date.time.video.recorded < date.hair.collected)

merged %>% group_by(hair.snare.id, date.hair.collected, videos_within_range) %>% 
  summarize(n=n())

# A tibble: 484 × 4
# Groups:   hair.snare.id, date.hair.collected [334]
   hair.snare.id date.hair.collected videos_within_range     n
   <chr>         <dttm>              <lgl>               <int>
 1 snare_01      2022-06-23 11:59:00 NA                      1
 2 snare_01      2022-07-01 11:59:00 NA                      1
 3 snare_01      2022-07-02 11:59:00 NA                      1
 4 snare_01      2022-07-07 11:59:00 NA                      1
 5 snare_01      2022-07-09 11:59:00 NA                      1
 6 snare_01      2022-07-11 11:59:00 NA                      1
 7 snare_01      2022-07-17 11:59:00 NA                      1
 8 snare_01      2022-07-24 11:59:00 NA                      1
 9 snare_02      2022-06-30 11:59:00 NA                      1
10 snare_02      2022-07-02 11:59:00 NA                      1
# ℹ 474 more rows

# filtering rows where the videos weren't taken in the time when the snares were checked
# if videos weren't taken at the times between checks they are NA so we can just get rid of the FALSE columns 
merged.1 <- merged %>% filter(videos_within_range != FALSE) # this also gets rid of NAs

# checking that it worked
merged.1 %>% group_by(hair.snare.id, date.hair.collected) %>% summarize(n=n())

# A tibble: 153 × 3
# Groups:   hair.snare.id [48]
   hair.snare.id date.hair.collected     n
   <chr>         <dttm>              <int>
 1 snare_03      2022-08-21 11:59:00    17
 2 snare_03      2022-08-26 11:59:00    28
 3 snare_03      2022-09-14 11:59:00    60
 4 snare_03_b    2023-09-01 11:59:00    11
 5 snare_03_b    2023-09-07 11:59:00     6
 6 snare_05      2022-10-29 11:59:00    12
 7 snare_06      2022-10-04 11:59:00    34
 8 snare_06      2022-10-10 11:59:00    20
 9 snare_06      2022-10-24 11:59:00   110
10 snare_07      2022-10-10 11:59:00   267
# ℹ 143 more rows
…
